<svg xmlns="http://www.w3.org/2000/svg" width="150" height="21" viewBox="0 0 150 21">
    <g fill="none" fill-rule="evenodd">
        <path fill="#FFF" d="M34.817 3.29c-3.136.041-5.514 1.784-5.514 4.64 0 2.793 2.378 3.927 5.042 4.221l.943.105c1.148.147 2.316.315 2.316 1.365 0 .798-.779 1.281-2.254 1.302h-.103c-1.967 0-3.361-1.008-3.976-1.617l-2.275 2.142a8.207 8.207 0 0 0 6.251 2.835h.103c3.361-.042 5.739-1.785 5.739-4.662 0-3.213-2.378-4.347-5.33-4.683l-.922-.084c-.902-.105-2.05-.23-2.05-1.029 0-1.05 1.394-1.176 2.03-1.176h.143c.78 0 2.337.525 3.444 1.218l2.275-2.142c-1.62-1.407-3.71-2.436-5.719-2.436h-.143zm9.094.146h4.837c4.202 0 6.436 2.667 6.436 5.796 0 3.15-2.234 5.796-6.436 5.796h-1.353v3.108h-3.484v-14.7zm3.484 8.211h1.62c1.475 0 2.869-.714 2.869-2.415 0-1.617-1.394-2.436-2.87-2.436h-1.619v4.851zm13.726-2.562V6.796h6.334v-3.36h-9.818v14.7h9.818v-3.38H61.12v-2.29h5.78v-3.38h-5.78zm18.645 9.051v-3.38h-5.985V3.435h-3.484v14.7h9.47zm12.107 0v-3.38h-5.985V3.435h-3.484v14.7h9.47zM99.307 3.29c-3.136.042-5.514 1.785-5.514 4.641 0 2.793 2.378 3.927 5.042 4.221l.943.105c1.148.147 2.316.315 2.316 1.365 0 .798-.778 1.281-2.254 1.302h-.103c-1.967 0-3.361-1.008-3.976-1.617l-2.275 2.142a8.207 8.207 0 0 0 6.251 2.835h.103c3.361-.042 5.739-1.785 5.739-4.662 0-3.213-2.378-4.347-5.33-4.683l-.922-.084c-.902-.105-2.05-.23-2.05-1.029 0-1.05 1.394-1.176 2.03-1.176h.143c.78 0 2.337.525 3.444 1.218l2.275-2.142c-1.62-1.407-3.71-2.436-5.719-2.436h-.143zm20.51 14.847v-14.7h-3.484v5.65h-4.448v-5.65h-3.484v14.7h3.484v-5.67h4.448v5.67h3.484zm10.16-14.847c4.038 0 7.317 3.36 7.317 7.497 0 4.158-3.28 7.497-7.317 7.497-4.038 0-7.297-3.339-7.297-7.497 0-4.137 3.26-7.497 7.297-7.497zm0 3.36c-2.132 0-3.812 1.617-3.812 4.137 0 2.541 1.68 4.116 3.812 4.116 2.152 0 3.833-1.575 3.833-4.116 0-2.52-1.68-4.137-3.833-4.137zm16.063.147h3.669v-3.36h-10.823v3.36h3.67v11.34h3.484V6.796z"/>
        <g>
            <ellipse cx="4.505" cy="4.615" fill="#FF6A6A" rx="4.505" ry="4.615"/>
            <ellipse cx="15.992" cy="4.615" fill="#FFF06A" rx="4.505" ry="4.615"/>
            <ellipse cx="4.505" cy="16.385" fill="#6A79FF" rx="4.505" ry="4.615"/>
            <ellipse cx="15.992" cy="16.385" fill="#6ABEFF" rx="4.505" ry="4.615"/>
        </g>
    </g>
</svg>
